[
{
  "model": "employee.employee",
  "pk": 16,
  "fields": {
    "name": "Maria da Silva",
    "department": "RH",
    "email": "maria@gmail.com"
  }
},
{
  "model": "employee.employee",
  "pk": 17,
  "fields": {
    "name": "Aurelio de Moraes",
    "department": "TI",
    "email": "aurelidemoraes13@gmail.com"
  }
},
{
  "model": "employee.employee",
  "pk": 18,
  "fields": {
    "name": "john McLarem Alfa",
    "department": "ADM",
    "email": "john@gmail.com"
  }
},
{
  "model": "employee.employee",
  "pk": 19,
  "fields": {
    "name": "Albert Billy",
    "department": "ELETRICA",
    "email": "albert@gmail.com"
  }
},
{
  "model": "employee.employee",
  "pk": 20,
  "fields": {
    "name": "Morgan Smith Jr",
    "department": "FINACEIRO",
    "email": "morgan@gmail.com"
  }
},
{
  "model": "employee.employee",
  "pk": 21,
  "fields": {
    "name": "joao das couves Neves",
    "department": "RH",
    "email": "johnalfa@gmail.com"
  }
}
]
